{
  "posts": [
    {
      "id": 1,
      "title": "json-server",
      "author": "typicode"
    }
  ],
  "comments": [
    {
      "id": 1,
      "body": "some comment",
      "postId": 1
    }
  ],
  "profile": {
    "name": "typicode"
  },
  "users": [
    {
      "id": 3,
      "name": "Clementine 23",
      "username": "Samantha",
      "email": "Nathan@yesenia.net",
      "address": {
        "street": "Douglas Extension",
        "suite": "Suite 847",
        "city": "McKenziehaven",
        "zipcode": "59590-4157",
        "geo": {
          "lat": "43.6102",
          "lng": "13.0653"
        }
      },
      "phone": "1-463-123-4447",
      "website": "ramiro.inforr",
      "company": {
        "name": "Romaguera-Jacobson",
        "catchPhrase": "Face to face bifurcated interface",
        "bs": "e-enable strategic applications"
      }
    },
    {
      "id": 5,
      "name": "ccccewf",
      "username": "Kamren",
      "email": "Lucio_Hettinger@annie.ca",
      "address": {
        "street": "Skiles Walks",
        "suite": "Suite 351",
        "city": "Roscoeview",
        "zipcode": "33263",
        "geo": {
          "lat": "44.8129",
          "lng": "11.5342"
        }
      },
      "phone": "(254)954-1289",
      "website": "demarco.info",
      "company": {
        "name": "Keebler LLC",
        "catchPhrase": "User-centric fault-tolerant solution",
        "bs": "revolutionize end-to-end systems"
      }
    },
    {
      "id": 6,
      "name": "aasffewaaaa",
      "username": "Leopoldo_Corkery",
      "email": "Karley_Dach@jasper.info",
      "address": {
        "street": "Norberto Crossing",
        "suite": "Apt. 950",
        "city": "South Christy",
        "zipcode": "23505-1337",
        "geo": {
          "lat": "41.4197",
          "lng": "16.7478"
        }
      },
      "phone": "1111",
      "website": "ola.org",
      "company": {
        "name": "Considine-Lockman",
        "catchPhrase": "Synchronised bottom-line interface",
        "bs": "e-enable innovative applications"
      }
    },
    {
      "name": "Fabio",
      "website": "webstite",
      "id": 7
    },
    {
      "name": "aaaa",
      "website": "bbbb",
      "id": 8
    },
    {
      "name": "cccc",
      "website": "wefwefew",
      "id": 9
    },
    {
      "name": "wefew",
      "website": "wefwe",
      "id": 10
    },
    {
      "name": "ccc",
      "website": "wefew",
      "id": 11
    },
    {
      "name": "aaaa",
      "website": "ewfew",
      "id": 12
    },
    {
      "name": "aaaa",
      "website": "gergre",
      "id": 13
    },
    {
      "name": "ssss",
      "website": "gergre",
      "id": 14
    }
  ]
}